rt2860v2/ap/ap_cfg.c:/* ASUS EXT by Jiahao */
rt2860v2/ap/ap_cfg.c:/* ASUS EXT by Jiahao */
rt2860v2/ap/ap_cfg.c:/* ASUS EXT by Jiahao */
rt2860v2/ap/ap_cfg.c:/* ASUS EXT by Jiahao */
rt2860v2/ap/ap_cfg.c:/* ASUS EXT by Jiahao */
rt2860v2/ap/ap_cfg.c:/* ASUS EXT by Jiahao */
rt2860v2/ap/ap_cfg.c:/* ASUS EXT by Jiahao */
rt2860v2/ap/ap_cfg.c:/* ASUS EXT by Jiahao */
rt2860v2/ap/ap_cfg.c://#ifdef DBG	// by Jiahao for ASUS ATE
rt2860v2/ap/ap_cfg.c://#endif //#ifdef DBG	// by Jiahao for ASUS ATE
rt2860v2/ap/ap_cfg.c:/* ASUS EXT by Jiahao */
rt2860v2/ap/ap_cfg.c:/* ASUS EXT by Jiahao */
rt2860v2/ap/apcli_ctrl.c:/* ASUS EXT by Jiahao */
rt2860v2/ap/apcli_ctrl.c:/* ASUS EXT by Jiahao */
rt2860v2/ap/apcli_ctrl.c:		/* ASUS EXT by Jiahao */
rt2860v2/ap/apcli_ctrl.c:		/* ASUS EXT by Jiahao */
rt2860v2/ap/apcli_ctrl.c:		/* ASUS EXT by Jiahao */
rt2860v2/ap/apcli_ctrl.c:		/* ASUS EXT by Jiahao */
rt2860v2/ap/apcli_ctrl.c:			/* ASUS EXT by Jiahao */
rt2860v2/ap/apcli_ctrl.c:			/* ASUS EXT by Jiahao */
rt2860v2/ap/apcli_ctrl.c:		/* ASUS EXT by Jiahao */
rt2860v2/ap/apcli_ctrl.c:		/* ASUS EXT by Jiahao */
rt2860v2/ap/apcli_ctrl.c:		/* ASUS EXT by Jiahao */
rt2860v2/ap/apcli_ctrl.c:		/* ASUS EXT by Jiahao */
rt2860v2/ap/apcli_ctrl.c:			/* ASUS EXT by Jiahao */
rt2860v2/ap/apcli_ctrl.c:			/* ASUS EXT by Jiahao */
rt2860v2/ap/apcli_ctrl.c:			/* ASUS EXT by Jiahao */
rt2860v2/ap/apcli_ctrl.c:			/* ASUS EXT by Jiahao */
rt2860v2/ap/apcli_ctrl.c:		/* ASUS EXT by Jiahao */
rt2860v2/ap/apcli_ctrl.c:		/* ASUS EXT by Jiahao */
rt2860v2/ap/apcli_ctrl.c:	/* ASUS EXT by Jiahao */
rt2860v2/ap/apcli_ctrl.c:	/* ASUS EXT by Jiahao */
rt2860v2/ap/apcli_ctrl.c:		/* ASUS EXT by Jiahao */
rt2860v2/ap/apcli_ctrl.c:		/* ASUS EXT by Jiahao */		
rt2860v2/ap/apcli_ctrl.c:	/* ASUS EXT by Jiahao */
rt2860v2/ap/apcli_ctrl.c:	/* ASUS EXT by Jiahao */
rt2860v2/ap/apcli_ctrl.c:/* ASUS EXT by Jiahao */
rt2860v2/ap/apcli_ctrl.c:/* ASUS EXT by Jiahao */
rt2860v2/ap/apcli_ctrl.c:	/* ASUS EXT by Jiahao */
rt2860v2/ap/apcli_ctrl.c:	/* ASUS EXT by Jiahao */
rt2860v2/ap/apcli_ctrl.c:	/* ASUS EXT by Jiahao */
rt2860v2/ap/apcli_ctrl.c:	/* ASUS EXT by Jiahao */
rt2860v2/ap/ap_apcli.c:/* ASUS EXT by Jiahao */
rt2860v2/ap/ap_apcli.c:/* ASUS EXT by Jiahao */
rt2860v2/ap/ap_apcli.c:			/* ASUS EXT by Jiahao */
rt2860v2/ap/ap_apcli.c:			/* ASUS EXT by Jiahao */
rt2860v2/ap/ap_apcli.c:		/* ASUS EXT by Jiahao */
rt2860v2/ap/ap_apcli.c:		/* ASUS EXT by Jiahao */
rt2860v2/include/oid.h://#ifdef	DBG	// by Jiahao for ASUS ATE
rt2860v2/include/oid.h://#endif		// by Jiahao for ASUS ATE
rt2860v2/include/oid.h://#ifdef DBG		// by Jiahao for ASUS ATE
rt2860v2/include/oid.h://#endif // DBG //	// by Jiahao for ASUS ATE
rt2860v2/include/oid.h://#ifdef DBG		// by Jiahao for ASUS ATE
rt2860v2/include/oid.h://#endif // DBG //	// by Jiahao for ASUS ATE
rt2860v2/include/wsc.h:/*ASUS EXT by Jiahao */
rt2860v2/include/wsc.h:/*ASUS EXT by Jiahao */
rt2860v2/include/ap_cfg.h://#ifdef DBG		// by Jiahao for ASUS ATE
rt2860v2/include/ap_cfg.h://#endif // DBG //	// by Jiahao for ASUS ATE
rt2860v2/common/rtmp_init.c:/* ASUS EXT by Jiahao */
rt2860v2/common/rtmp_init.c:/* ASUS EXT by Jiahao */
rt2860v2/common/wsc.c:#define ASUS_NVRAM		/* ASUS EXT by Jiahao */
rt2860v2/common/wsc.c:#include <nvram/bcmnvram.h>	/* ASUS EXT by Jiahao */
rt2860v2/common/wsc.c:				nvram_set("stop_wps_led", "1");	/* ASUS EXT by Jiahao */
rt2860v2/common/wsc.c:				nvram_set("stop_wps_led", "1");	/* ASUS EXT by Jiahao */
rt2860v2/common/wsc.c:			nvram_set("stop_wps_led", "1");	/* ASUS EXT by Jiahao */
rt2860v2/common/wsc.c:			nvram_set("stop_wps_led", "1");	/* ASUS EXT by Jiahao */
rt2860v2/common/wsc.c:						nvram_set("stop_wps_led", "1");	/* ASUS EXT by Jiahao */
rt2860v2/common/wsc.c:					nvram_set("stop_wps_led", "1");	/* ASUS EXT by Jiahao */
rt2860v2/common/wsc.c:					nvram_set("stop_wps_led", "1");	/* ASUS EXT by Jiahao */
rt2860v2/common/wsc.c:        nvram_set("stop_wps_led", "1");	/* ASUS EXT by Jiahao */
rt2860v2/common/wsc.c:        nvram_set("stop_wps_led", "1");	/* ASUS EXT by Jiahao */
rt2860v2/common/wsc.c:/* ASUS EXT by Jiahao */
rt2860v2/common/wsc.c:/* ASUS EXT by Jiahao */
rt2860v2/common/wsc.c:/*ASUS EXT by Jiahao */
rt2860v2/common/wsc.c:        nvram_set("stop_wps_led", "1");	/* ASUS EXT by Jiahao */
rt2860v2/common/wsc.c:/* ASUS EXT by Jiahao */
rt2860v2/common/wsc.c:	char tmpstr[128];	/* ASUS EXT by Jiahao */
rt2860v2/common/wsc.c:/* ASUS EXT by Jiahao */
rt2860v2/common/wsc.c:/* ASUS EXT by Jiahao */
rt2860v2/common/wsc.c:/* ASUS EXT by Jiahao */
rt2860v2/common/wsc.c:/* ASUS EXT by Jiahao */
rt2860v2/common/wsc.c:/* ASUS EXT by Jiahao */
rt2860v2/common/wsc.c:/* ASUS EXT by Jiahao */
rt2860v2/common/wsc.c:	char tmpstr[128];	/* ASUS EXT by Jiahao */
rt2860v2/common/wsc.c:/* ASUS EXT by Jiahao */
rt2860v2/common/wsc.c:/* ASUS EXT by Jiahao */
rt2860v2/common/wsc.c:/* ASUS EXT by Jiahao */
rt2860v2/common/wsc.c:/* ASUS EXT by Jiahao */
rt2860v2/common/wsc.c:/* ASUS EXT by Jiahao */
rt2860v2/common/wsc.c:/* ASUS EXT by Jiahao */
rt2860v2/common/wsc.c:	char tmpstr[128];	/* ASUS EXT by Jiahao */
rt2860v2/common/wsc.c:/* ASUS EXT by Jiahao */
rt2860v2/common/wsc.c:/* ASUS EXT by Jiahao */
rt2860v2/common/wsc.c:/* ASUS EXT by Jiahao */
rt2860v2/common/wsc.c:/* ASUS EXT by Jiahao */
rt2860v2/common/wsc.c:/* ASUS EXT by Jiahao */
rt2860v2/common/wsc.c:/* ASUS EXT by Jiahao */
rt2860v2/common/wsc.c:/* ASUS EXT by Jiahao */
rt2860v2/common/wsc.c:/* ASUS EXT by Jiahao */
rt2860v2/common/wsc.c:								printk("Current WscConfMode=%d\n", pWscControl->WscConfMode);		/* ASUS EXT by Jiahao */
rt2860v2/common/wsc.c:								printk("Current WscConfStatus=%d\n", pWscControl->WscConfStatus);	/* ASUS EXT by Jiahao */
rt2860v2/common/wsc.c:/* ASUS EXT by Jiahao */
rt2860v2/common/wsc.c:/* ASUS EXT by Jiahao */
rt2860v2/common/wsc.c:/* ASUS EXT by Jiahao */
rt2860v2/common/wsc.c:/* ASUS EXT by Jiahao */
rt2860v2/common/wsc.c:/* ASUS EXT by Jiahao */
rt2860v2/common/wsc.c:/* ASUS EXT by Jiahao */
rt2860v2/common/wsc.c:/* ASUS EXT by Jiahao */
rt2860v2/common/wsc.c:/* ASUS EXT by Jiahao */
rt2860v2/common/wsc.c:/* ASUS EXT by Jiahao */
rt2860v2/common/wsc.c:/* ASUS EXT by Jiahao */
rt2860v2/common/wsc.c:/* ASUS EXT by Jiahao */
rt2860v2/common/wsc.c:/* ASUS EXT by Jiahao */
rt2860v2/common/wsc.c:/* ASUS EXT by Jiahao */
rt2860v2/common/wsc.c:/* ASUS EXT by Jiahao */
rt2860v2/common/cmm_wpa.c:/* ASUS EXT by Jiahao */
rt2860v2/common/cmm_wpa.c:/* ASUS EXT by Jiahao */
rt2860v2/common/cmm_wpa.c:/* ASUS EXT by Jiahao */
rt2860v2/common/cmm_wpa.c:/* ASUS EXT by Jiahao */
rt2860v2/common/cmm_wpa.c:/* ASUS EXT by Jiahao */
rt2860v2/common/cmm_wpa.c:/* ASUS EXT by Jiahao */
rt2860v2/common/cmm_info.c:PSTRING GetEncryptType(CHAR enc)	// ASUS EXT by Jiahao
rt2860v2/common/cmm_info.c:PSTRING GetAuthMode(CHAR auth)	// ASUS EXT by Jiahao
rt2860v2/common/cmm_info.c:#define	LINE_LEN	(3+33+18+9+16+9+8+3+3)	// Channel+SSID+Bssid+WepStatus+AuthMode+Signal+WiressMode+NetworkType+ExtCh	// ASUS EXT by Jiahao for httpd hook
rt2860v2/common/cmm_info.c:		sprintf(msg+strlen(msg),"%-3d", pBss->Channel); // ASUS EXT by Jiahao for httpd hook
rt2860v2/common/cmm_info.c:		sprintf(msg+strlen(msg),"%02X:%02X:%02X:%02X:%02X:%02X ",	// ASUS EXT by Jiahao for httpd hook
rt2860v2/common/cmm_info.c:		sprintf(SecurityStr+strlen(SecurityStr),"%-9s", GetEncryptType((CHAR)ap_cipher));		// ASUS EXT by Jiahao for httpd hook
rt2860v2/common/cmm_info.c:		sprintf(SecurityStr+strlen(SecurityStr),"%-16s", GetAuthMode((CHAR)ap_auth_mode));		// ASUS EXT by Jiahao for httpd hook
rt2860v2/common/cmm_info.c:			sprintf(SecurityStr, "NONE     Open System");								// ASUS EXT by Jiahao for httpd hook
rt2860v2/common/cmm_info.c:			sprintf(SecurityStr, "WEP      Unknown");								// ASUS EXT by Jiahao for httpd hook
rt2860v2/common/cmm_info.c:			sprintf(SecurityStr+strlen(SecurityStr),"%-9s", GetEncryptType((CHAR)ap_cipher));	// ASUS EXT by Jiahao for httpd hook
rt2860v2/common/cmm_info.c:			sprintf(SecurityStr+strlen(SecurityStr),"%-16s", GetAuthMode((CHAR)ap_auth_mode));	// ASUS EXT by Jiahao for httpd hook
rt2860v2/common/cmm_info.c:			sprintf(msg+strlen(msg),"%-8s", "11b");		// ASUS EXT by Jiahao for httpd hook
rt2860v2/common/cmm_info.c:			sprintf(msg+strlen(msg),"%-8s", "11a");		// ASUS EXT by Jiahao for httpd hook
rt2860v2/common/cmm_info.c:			sprintf(msg+strlen(msg),"%-8s", "11a/n");	// ASUS EXT by Jiahao for httpd hook
rt2860v2/common/cmm_info.c:			sprintf(msg+strlen(msg),"%-8s", "11b/g");	// ASUS EXT by Jiahao for httpd hook
rt2860v2/common/cmm_info.c:			sprintf(msg+strlen(msg),"%-8s", "11b/g/n");	// ASUS EXT by Jiahao for httpd hook
rt2860v2/common/cmm_info.c:			sprintf(msg+strlen(msg),"%-8s", "unknown");	// ASUS EXT by Jiahao for httpd hook
rt2860v2/common/cmm_info.c:			sprintf(msg+strlen(msg),"%-3s", "Ad ");		// ASUS EXT by Jiahao for httpd hook
rt2860v2/common/cmm_info.c:			sprintf(msg+strlen(msg),"%-3s", "In ");		// ASUS EXT by Jiahao for httpd hook
rt2860v2/common/cmm_info.c:		sprintf(msg+strlen(msg),"%-2d", pBss->CentralChannel);	// ASUS EXT by Jiahao for httpd hook
rt2860v2/common/cmm_info.c:	sprintf(msg+strlen(msg),"%-3s%-33s%-18s%-9s%-16s%-9s%-8s%-2s%-3s\n",	// ASUS EXT by Jiahao for httpd hook
rt2860v2/os/linux/ap_ioctl.c://#ifdef DBG		// by Jiahao for ASUS ATE
rt2860v2/os/linux/ap_ioctl.c://#endif // DBG //	// by Jiahao for ASUS ATE
rt2860v2/os/linux/ap_ioctl.c://#ifdef DBG		// by Jiahao for ASUS ATE
rt2860v2/os/linux/ap_ioctl.c://#endif // DBG //	// by Jiahao for ASUS ATE
rt2860v2/os/linux/sta_ioctl.c:						pAdapter->StaCfg.WscControl.WscEnrolleePinCodeLen = 4;		// ASUS EXT by Jiahao
rt2860v2/os/linux/sta_ioctl.c:						pAdapter->StaCfg.WscControl.WscEnrolleePinCodeLen = 8;		// ASUS EXT by Jiahao
rt2860v2/os/linux/sta_ioctl.c:        	    	pAdapter->StaCfg.WscControl.WscEnrolleePinCode = pAdapter->StaCfg.WscControl.WscPinCode;// ASUS EXT by Jiahao
