# Version Information used by addver in image section of Makefile
KERNEL_VER="1.0"
FS_VER="4.9"
PRODUCTID="DSL-N10"
HWL1="1.0"
HWH1="0.0"
HWL2="0.0"
HWH2="0.0"
HWL3="0.0"
HWH3="0.0"
HWL4="0.0"
HWH4="0.0"
